…
## Example

This is a basic example where we want to look at all contributions
stored in all of our git repositories stored in `HOME`:

``` r
remotes::install_github("denrou/ggit")
# Yes this is an auto-promotion :)
```

``` r
df <- ggit::contributions(path = Sys.getenv("HOME"))
df
#> # A tibble: 3,262 x 3
#>    when       author                                      n
#>    <date>     <chr>                                   <int>
#>  1 2002-05-17 dj@dcde13d4-9b1b-0410-ac9e-ef07de68c835     5
#>  2 2002-05-18 dj@dcde13d4-9b1b-0410-ac9e-ef07de68c835     8
#>  3 2002-05-20 dj@dcde13d4-9b1b-0410-ac9e-ef07de68c835     3
#>  4 2002-06-25 dj@dcde13d4-9b1b-0410-ac9e-ef07de68c835     3
#>  5 2002-08-24 dj@dcde13d4-9b1b-0410-ac9e-ef07de68c835     1
#>  6 2002-09-10 dj@dcde13d4-9b1b-0410-ac9e-ef07de68c835     7
#>  7 2002-12-18 dj@dcde13d4-9b1b-0410-ac9e-ef07de68c835     2
#>  8 2003-05-16 dj@dcde13d4-9b1b-0410-ac9e-ef07de68c835     2
#>  9 2003-11-04 dj@dcde13d4-9b1b-0410-ac9e-ef07de68c835     1
#> 10 2003-12-01 dj@dcde13d4-9b1b-0410-ac9e-ef07de68c835     4
#> # … with 3,252 more rows
```
…
